uid;kind;name;role;description;url;address;from_date;to_date
1;asymmetric Reunion;cross-platform;Liberian Dollar connect;hard drive;http://forest.com;Home Loan Account;Checking;Awesome 
2;Refined Wooden Car customer loyalty Burg;Games Gloves;Borders superstructure back-end;Illinois visualize;https://jaron.org;attitude-oriented intuitive;interact;Practica
3;open-source index stable;Rubber;cross-platform cyan;program Zimbabwe;https://kory.info;incubate Gorgeous Frozen Shoes;e-market;extend P
4;payment open architecture;Grocery Syrian Pound Saudi Riyal;withdrawal Germany;Lari generate;http://joe.info;Georgia;contextu;Cuba Buc
5;Fresh Analyst;reboot maximized;efficient Ball quantifying;Bike;http://braeden.biz;quantify generate Fantastic;Licensed;Pre-empt
6;backing up;Wooden Designer Borders;Hat client-server Functionality;even-keeled Uzbekistan back up;http://erin.net;Madagascar;Vista fu;Ergonomi
7;digital Cedi programming;Synchronised Personal Loan Account Fresh;deposit Quality;payment Ville RAM;https://eloy.org;invoice;Clothing;Latvian 
8;Cloned fresh-thinking;Rest Nevada Heard Island and McDonald Islands;Ergonomic Metal Chair;Sleek Concrete Chair Focused;http://murl.com;Savings Account vertical Customer;XML;matrix
9;Light Health HDD;Berkshire;architecture Music;bluetooth Paradigm Holy See (Vatican City State);http://tamara.net;transmit;leverage;Tuna EXE
10;Montana Granite Pennsylvania;South Dakota;Home Loan Account Sleek Wooden Chair PCI;violet Refined Rubber Car;http://elmira.info;Personal Loan Account;Fish;flexibil
